examples/74163.vcd
$timescale 1ns $end
$scope module design $end
$var wire 1 ! A-1 $end
$var wire 1 " A-5 $end
$var wire 1 # A-6 $end
$var wire 1 $ A-7 $end
$var wire 1 % A-8 $end
$var wire 1 & A-9 $end
$var wire 1 ' A-10 $end
$var wire 1 ( A-11 $end
$upscope $end
$enddefinitions $end
#0
$dumpvars
z!
z"
z#
z$
z%
z&
z'
z(
$end
#1
0!
x"
x#
x$
x%
x&
0'
0(
#51
1!
1'
#52
0"
0#
0$
0%
#53
0&
#101
0!
0'
#151
1!
1'
#201
0!
0'
#251
1!
1'
#301
0!
0'
1(
#351
1!
1'
#352
1"
#401
0!
0'
#451
1!
1'
#452
0"
1#
#501
0!
0'
#551
1!
1'
#552
1"
#601
0!
0'
#651
1!
1'
#652
0"
0#
1$
#701
0!
0'
#751
1!
1'
#752
1"
#801
0!
0'
#851
1!
1'
#852
0"
1#
#901
0!
0'
#951
1!
1'
#952
1"
#1001
0!
0'
#1051
1!
1'
#1052
0"
0#
0$
1%
#1101
0!
0'
#1151
1!
1'
#1152
1"
#1201
0!
0'
#1251
1!
1'
#1252
0"
1#
#1301
0!
0'
#1351
1!
1'
#1352
1"
#1401
0!
0'
#1451
1!
1'
#1452
0"
0#
1$
#1501
0!
0'
#1551
1!
1'
#1552
1"
#1601
0!
0'
#1651
1!
1'
#1652
0"
1#
#1701
0!
0'
#1751
1!
1'
#1752
1"
#1753
1&
#1801
0!
0'
#1851
1!
1'
#1852
0"
0#
0$
0%
#1853
0&
#1901
0!
0'
#1951
1!
1'
#1952
1"
